--------------------------------2020-02-20 10:33:13--------------------------------
"Order nr 1247087 price is "

--------------------------------2020-02-20 10:33:13--------------------------------
"Order nr 1247088 price is "

--------------------------------2020-02-20 10:33:13--------------------------------
"Order nr 1247089 price is "

--------------------------------2020-02-20 10:33:13--------------------------------
"Order nr 1247090 price is "

--------------------------------2020-02-20 10:33:13--------------------------------
"Order nr 1247091 price is "

--------------------------------2020-02-20 10:33:13--------------------------------
"Order nr 1247092 price is "

--------------------------------2020-02-20 10:33:13--------------------------------
"Order nr 1247093 price is "

--------------------------------2020-02-20 10:33:13--------------------------------
"Order nr 1247094 price is "

--------------------------------2020-02-20 10:33:13--------------------------------
"Order nr 1247095 price is "

--------------------------------2020-02-20 10:33:13--------------------------------
"Order nr 1247096 price is "

--------------------------------2020-02-20 10:33:13--------------------------------
"Order nr 1247097 price is "

--------------------------------2020-02-20 10:33:13--------------------------------
"Order nr 1247098 price is "

--------------------------------2020-02-20 10:33:13--------------------------------
"Order nr 1247099 price is "

--------------------------------2020-02-20 10:33:13--------------------------------
"Order nr 1247100 price is "

--------------------------------2020-02-20 10:33:13--------------------------------
"Order nr 1247101 price is "

--------------------------------2020-02-20 10:33:13--------------------------------
"Order nr 1247102 price is "

--------------------------------2020-02-20 10:33:13--------------------------------
"Order nr 1247103 price is "

--------------------------------2020-02-20 10:33:13--------------------------------
"Order nr 1247104 price is "

--------------------------------2020-02-20 10:33:13--------------------------------
"Order nr 1247105 price is "

--------------------------------2020-02-20 10:33:13--------------------------------
"Order nr 1247106 price is "

--------------------------------2020-02-20 10:33:13--------------------------------
"Order nr 1247107 price is "

--------------------------------2020-02-20 10:33:13--------------------------------
"Order nr 1247108 price is "

--------------------------------2020-02-20 10:33:13--------------------------------
"Order nr 1247109 price is "

--------------------------------2020-02-20 10:33:13--------------------------------
"Order nr 1247110 price is "

--------------------------------2020-02-20 10:33:13--------------------------------
"Order nr 1247111 price is "

--------------------------------2020-02-20 10:33:13--------------------------------
"Order nr 1247112 price is "

--------------------------------2020-02-20 10:33:13--------------------------------
"Order nr 1247113 price is "

--------------------------------2020-02-20 10:33:13--------------------------------
"Order nr 1247114 price is "

--------------------------------2020-02-20 10:33:13--------------------------------
"Order nr 1247115 price is "

--------------------------------2020-02-20 10:33:13--------------------------------
"Order nr 1247116 price is "

--------------------------------2020-02-20 10:33:13--------------------------------
"Order nr 1247117 price is "

--------------------------------2020-02-20 10:33:13--------------------------------
"Order nr 1247118 price is "

--------------------------------2020-02-20 10:33:13--------------------------------
"Order nr 1247119 price is "

--------------------------------2020-02-20 10:33:13--------------------------------
"Order nr 1247120 price is "

--------------------------------2020-02-20 10:33:13--------------------------------
"Order nr 1247121 price is "

--------------------------------2020-02-20 10:33:13--------------------------------
"Order nr 1247122 price is "

--------------------------------2020-02-20 10:33:13--------------------------------
"Order nr 1247123 price is "

--------------------------------2020-02-20 10:33:13--------------------------------
"Order nr 1247124 price is "

--------------------------------2020-02-20 10:33:13--------------------------------
"Order nr 1247125 price is "

--------------------------------2020-02-20 10:33:13--------------------------------
"Order nr 1247126 price is "

--------------------------------2020-02-20 10:33:13--------------------------------
"Order nr 1247127 price is "

--------------------------------2020-02-20 10:33:13--------------------------------
"Order nr 1247128 price is "

--------------------------------2020-02-20 10:33:13--------------------------------
"Order nr 1247129 price is "

--------------------------------2020-02-20 10:33:13--------------------------------
"Order nr 1247130 price is "

--------------------------------2020-02-20 10:33:13--------------------------------
"Order nr 1247131 price is "

--------------------------------2020-02-20 10:33:13--------------------------------
"Order nr 1247132 price is "

--------------------------------2020-02-20 10:33:13--------------------------------
"Order nr 1247133 price is "

--------------------------------2020-02-20 10:33:13--------------------------------
"Order nr 1247134 price is "

--------------------------------2020-02-20 10:33:13--------------------------------
"Order nr 1247136 price is "

--------------------------------2020-02-20 10:33:13--------------------------------
"Order nr 1247137 price is "

--------------------------------2020-02-20 10:33:13--------------------------------
"Order nr 1247138 price is "

--------------------------------2020-02-20 10:33:13--------------------------------
"Order nr 1247139 price is "

--------------------------------2020-02-20 10:33:13--------------------------------
"Order nr 1247140 price is "

--------------------------------2020-02-20 10:33:13--------------------------------
"Order nr 1247141 price is "

--------------------------------2020-02-20 10:33:13--------------------------------
"Order nr 1247142 price is "

--------------------------------2020-02-20 10:33:13--------------------------------
"Order nr 1247143 price is "

--------------------------------2020-02-20 10:33:13--------------------------------
"Order nr 1247144 price is "

--------------------------------2020-02-20 10:33:13--------------------------------
"Order nr 1247145 price is "

--------------------------------2020-02-20 10:33:13--------------------------------
"Order nr 1247146 price is "

--------------------------------2020-02-20 10:33:13--------------------------------
"Order nr 1247147 price is "

--------------------------------2020-02-20 10:33:13--------------------------------
"Order nr 1247148 price is "

--------------------------------2020-02-20 10:33:13--------------------------------
"Order nr 1247149 price is "

--------------------------------2020-02-20 10:33:19--------------------------------
"Order nr 1247087 price is "

--------------------------------2020-02-20 10:33:19--------------------------------
"Order nr 1247088 price is "

--------------------------------2020-02-20 10:33:19--------------------------------
"Order nr 1247089 price is "

--------------------------------2020-02-20 10:33:19--------------------------------
"Order nr 1247090 price is "

--------------------------------2020-02-20 10:33:19--------------------------------
"Order nr 1247091 price is "

--------------------------------2020-02-20 10:33:19--------------------------------
"Order nr 1247092 price is "

--------------------------------2020-02-20 10:33:19--------------------------------
"Order nr 1247093 price is "

--------------------------------2020-02-20 10:33:19--------------------------------
"Order nr 1247094 price is "

--------------------------------2020-02-20 10:33:19--------------------------------
"Order nr 1247095 price is "

--------------------------------2020-02-20 10:33:19--------------------------------
"Order nr 1247096 price is "

--------------------------------2020-02-20 10:33:19--------------------------------
"Order nr 1247097 price is "

--------------------------------2020-02-20 10:33:19--------------------------------
"Order nr 1247098 price is "

--------------------------------2020-02-20 10:33:19--------------------------------
"Order nr 1247099 price is "

--------------------------------2020-02-20 10:33:19--------------------------------
"Order nr 1247100 price is "

--------------------------------2020-02-20 10:33:19--------------------------------
"Order nr 1247101 price is "

--------------------------------2020-02-20 10:33:19--------------------------------
"Order nr 1247102 price is "

--------------------------------2020-02-20 10:33:19--------------------------------
"Order nr 1247103 price is "

--------------------------------2020-02-20 10:33:19--------------------------------
"Order nr 1247104 price is "

--------------------------------2020-02-20 10:33:19--------------------------------
"Order nr 1247105 price is "

--------------------------------2020-02-20 10:33:19--------------------------------
"Order nr 1247106 price is "

--------------------------------2020-02-20 10:33:19--------------------------------
"Order nr 1247107 price is "

--------------------------------2020-02-20 10:33:19--------------------------------
"Order nr 1247108 price is "

--------------------------------2020-02-20 10:33:19--------------------------------
"Order nr 1247109 price is "

--------------------------------2020-02-20 10:33:19--------------------------------
"Order nr 1247110 price is "

--------------------------------2020-02-20 10:33:19--------------------------------
"Order nr 1247111 price is "

--------------------------------2020-02-20 10:33:19--------------------------------
"Order nr 1247112 price is "

--------------------------------2020-02-20 10:33:19--------------------------------
"Order nr 1247113 price is "

--------------------------------2020-02-20 10:33:19--------------------------------
"Order nr 1247114 price is "

--------------------------------2020-02-20 10:33:19--------------------------------
"Order nr 1247115 price is "

--------------------------------2020-02-20 10:33:19--------------------------------
"Order nr 1247116 price is "

--------------------------------2020-02-20 10:33:19--------------------------------
"Order nr 1247117 price is "

--------------------------------2020-02-20 10:33:19--------------------------------
"Order nr 1247118 price is "

--------------------------------2020-02-20 10:33:19--------------------------------
"Order nr 1247119 price is "

--------------------------------2020-02-20 10:33:19--------------------------------
"Order nr 1247120 price is "

--------------------------------2020-02-20 10:33:19--------------------------------
"Order nr 1247121 price is "

--------------------------------2020-02-20 10:33:19--------------------------------
"Order nr 1247122 price is "

--------------------------------2020-02-20 10:33:19--------------------------------
"Order nr 1247123 price is "

--------------------------------2020-02-20 10:33:19--------------------------------
"Order nr 1247124 price is "

--------------------------------2020-02-20 10:33:19--------------------------------
"Order nr 1247125 price is "

--------------------------------2020-02-20 10:33:19--------------------------------
"Order nr 1247126 price is "

--------------------------------2020-02-20 10:33:19--------------------------------
"Order nr 1247127 price is "

--------------------------------2020-02-20 10:33:19--------------------------------
"Order nr 1247128 price is "

--------------------------------2020-02-20 10:33:19--------------------------------
"Order nr 1247129 price is "

--------------------------------2020-02-20 10:33:19--------------------------------
"Order nr 1247130 price is "

--------------------------------2020-02-20 10:33:19--------------------------------
"Order nr 1247131 price is "

--------------------------------2020-02-20 10:33:19--------------------------------
"Order nr 1247132 price is "

--------------------------------2020-02-20 10:33:19--------------------------------
"Order nr 1247133 price is "

--------------------------------2020-02-20 10:33:19--------------------------------
"Order nr 1247134 price is "

--------------------------------2020-02-20 10:33:19--------------------------------
"Order nr 1247136 price is "

--------------------------------2020-02-20 10:33:19--------------------------------
"Order nr 1247137 price is "

--------------------------------2020-02-20 10:33:19--------------------------------
"Order nr 1247138 price is "

--------------------------------2020-02-20 10:33:19--------------------------------
"Order nr 1247139 price is "

--------------------------------2020-02-20 10:33:19--------------------------------
"Order nr 1247140 price is "

--------------------------------2020-02-20 10:33:19--------------------------------
"Order nr 1247141 price is "

--------------------------------2020-02-20 10:33:19--------------------------------
"Order nr 1247142 price is "

--------------------------------2020-02-20 10:33:19--------------------------------
"Order nr 1247143 price is "

--------------------------------2020-02-20 10:33:19--------------------------------
"Order nr 1247144 price is "

--------------------------------2020-02-20 10:33:19--------------------------------
"Order nr 1247145 price is "

--------------------------------2020-02-20 10:33:19--------------------------------
"Order nr 1247146 price is "

--------------------------------2020-02-20 10:33:19--------------------------------
"Order nr 1247147 price is "

--------------------------------2020-02-20 10:33:19--------------------------------
"Order nr 1247148 price is "

--------------------------------2020-02-20 10:33:19--------------------------------
"Order nr 1247149 price is "

--------------------------------2020-02-20 10:38:14--------------------------------
"Order nr 1247087 price is "

--------------------------------2020-02-20 10:39:51--------------------------------
"Order nr 1247087 price is "

--------------------------------2020-02-20 10:43:32--------------------------------
"Order nr 1247087 price is "

--------------------------------2020-02-20 10:47:51--------------------------------
"Order nr 1247087 price is "

--------------------------------2020-02-20 10:50:14--------------------------------
"Order nr 1247087 price is "

--------------------------------2020-02-20 10:50:14--------------------------------
"Order nr 1247088 price is "

--------------------------------2020-02-20 10:50:14--------------------------------
"Order nr 1247089 price is "

--------------------------------2020-02-20 10:50:14--------------------------------
"Order nr 1247090 price is "

--------------------------------2020-02-20 10:50:14--------------------------------
"Order nr 1247091 price is "

--------------------------------2020-02-20 10:50:14--------------------------------
"Order nr 1247092 price is "

--------------------------------2020-02-20 10:50:14--------------------------------
"Order nr 1247093 price is "

--------------------------------2020-02-20 10:50:14--------------------------------
"Order nr 1247094 price is "

--------------------------------2020-02-20 10:50:14--------------------------------
"Order nr 1247095 price is "

--------------------------------2020-02-20 10:50:14--------------------------------
"Order nr 1247096 price is "

--------------------------------2020-02-20 10:50:14--------------------------------
"Order nr 1247097 price is "

--------------------------------2020-02-20 10:50:14--------------------------------
"Order nr 1247098 price is "

--------------------------------2020-02-20 10:50:14--------------------------------
"Order nr 1247099 price is "

--------------------------------2020-02-20 10:50:14--------------------------------
"Order nr 1247100 price is "

--------------------------------2020-02-20 10:50:14--------------------------------
"Order nr 1247101 price is "

--------------------------------2020-02-20 10:50:14--------------------------------
"Order nr 1247102 price is "

--------------------------------2020-02-20 10:50:14--------------------------------
"Order nr 1247103 price is "

--------------------------------2020-02-20 10:50:14--------------------------------
"Order nr 1247104 price is "

--------------------------------2020-02-20 10:50:14--------------------------------
"Order nr 1247105 price is "

--------------------------------2020-02-20 10:50:14--------------------------------
"Order nr 1247106 price is "

--------------------------------2020-02-20 10:50:14--------------------------------
"Order nr 1247107 price is "

--------------------------------2020-02-20 10:50:14--------------------------------
"Order nr 1247108 price is "

--------------------------------2020-02-20 10:50:14--------------------------------
"Order nr 1247109 price is "

--------------------------------2020-02-20 10:50:14--------------------------------
"Order nr 1247110 price is "

--------------------------------2020-02-20 10:50:14--------------------------------
"Order nr 1247111 price is "

--------------------------------2020-02-20 10:50:14--------------------------------
"Order nr 1247112 price is "

--------------------------------2020-02-20 10:50:14--------------------------------
"Order nr 1247113 price is "

--------------------------------2020-02-20 10:50:14--------------------------------
"Order nr 1247114 price is "

--------------------------------2020-02-20 10:50:14--------------------------------
"Order nr 1247115 price is "

--------------------------------2020-02-20 10:50:14--------------------------------
"Order nr 1247116 price is "

--------------------------------2020-02-20 10:50:14--------------------------------
"Order nr 1247117 price is "

--------------------------------2020-02-20 10:50:14--------------------------------
"Order nr 1247118 price is "

--------------------------------2020-02-20 10:50:14--------------------------------
"Order nr 1247119 price is "

--------------------------------2020-02-20 10:50:14--------------------------------
"Order nr 1247120 price is "

--------------------------------2020-02-20 10:50:14--------------------------------
"Order nr 1247121 price is "

--------------------------------2020-02-20 10:50:14--------------------------------
"Order nr 1247122 price is "

--------------------------------2020-02-20 10:50:14--------------------------------
"Order nr 1247123 price is "

--------------------------------2020-02-20 10:50:14--------------------------------
"Order nr 1247124 price is "

--------------------------------2020-02-20 10:50:14--------------------------------
"Order nr 1247125 price is "

--------------------------------2020-02-20 10:50:14--------------------------------
"Order nr 1247126 price is "

--------------------------------2020-02-20 10:50:14--------------------------------
"Order nr 1247127 price is "

--------------------------------2020-02-20 10:50:14--------------------------------
"Order nr 1247128 price is "

--------------------------------2020-02-20 10:50:14--------------------------------
"Order nr 1247129 price is "

--------------------------------2020-02-20 10:50:14--------------------------------
"Order nr 1247130 price is "

--------------------------------2020-02-20 10:50:14--------------------------------
"Order nr 1247131 price is "

--------------------------------2020-02-20 10:50:14--------------------------------
"Order nr 1247132 price is "

--------------------------------2020-02-20 10:50:14--------------------------------
"Order nr 1247133 price is "

--------------------------------2020-02-20 10:50:14--------------------------------
"Order nr 1247134 price is "

--------------------------------2020-02-20 10:50:14--------------------------------
"Order nr 1247136 price is "

--------------------------------2020-02-20 10:50:14--------------------------------
"Order nr 1247137 price is "

--------------------------------2020-02-20 10:50:14--------------------------------
"Order nr 1247138 price is "

--------------------------------2020-02-20 10:50:14--------------------------------
"Order nr 1247139 price is "

--------------------------------2020-02-20 10:50:14--------------------------------
"Order nr 1247140 price is "

--------------------------------2020-02-20 10:50:14--------------------------------
"Order nr 1247141 price is "

--------------------------------2020-02-20 10:50:14--------------------------------
"Order nr 1247142 price is "

--------------------------------2020-02-20 10:50:14--------------------------------
"Order nr 1247143 price is "

--------------------------------2020-02-20 10:50:14--------------------------------
"Order nr 1247144 price is "

--------------------------------2020-02-20 10:50:14--------------------------------
"Order nr 1247145 price is "

--------------------------------2020-02-20 10:50:14--------------------------------
"Order nr 1247146 price is "

--------------------------------2020-02-20 10:50:14--------------------------------
"Order nr 1247147 price is "

--------------------------------2020-02-20 10:50:14--------------------------------
"Order nr 1247148 price is "

--------------------------------2020-02-20 10:50:14--------------------------------
"Order nr 1247149 price is "

